%YAML 1.1
%TAG !u! tag:unity3d.com,2011:
--- !u!114 &5752335720738458
MonoBehaviour:
  m_ObjectHideFlags: 0
  m_CorrespondingSourceObject: {fileID: 0}
  m_PrefabInstance: {fileID: 0}
  m_PrefabAsset: {fileID: 0}
  m_GameObject: {fileID: 529651543586094451}
  m_Enabled: 1
  m_EditorHideFlags: 0
  m_Script: {fileID: 11500000, guid: ed81f5ebc408a8040862b7a2948e3811, type: 3}
  m_Name: 
  m_EditorClassIdentifier: 
  isKinematicOnRelease: 0
  turnGravityOnOnRelease: 1
  constraintsOnRelease: 0
  massOnRelease: 0.05
  zOnRelease: 0
  xOnRelease: -99
  yOnRelease: -99
  SnapsOnRelease: 1
  OnlyOneInstanceAllowed: 0
  RemainsDraggableOnRelease: 0
  CallDropHandler: 0
  DisappearsOnRelease: 0
  CanvasClickToDisappear: 0
  rotationOnSpawn: {x: 0, y: 180, z: 0}
  constrainXBy: {fileID: 0}
--- !u!114 &503553504307630542
MonoBehaviour:
  m_ObjectHideFlags: 0
  m_CorrespondingSourceObject: {fileID: 0}
  m_PrefabInstance: {fileID: 0}
  m_PrefabAsset: {fileID: 0}
  m_GameObject: {fileID: 529651543586094451}
  m_Enabled: 1
  m_EditorHideFlags: 0
  m_Script: {fileID: 11500000, guid: 58b64cc428f3ad543a298dadd3871678, type: 3}
  m_Name: 
  m_EditorClassIdentifier: 
  floorTag: Floor
--- !u!1001 &530413923732396323
PrefabInstance:
  m_ObjectHideFlags: 0
  serializedVersion: 2
  m_Modification:
    m_TransformParent: {fileID: 0}
    m_Modifications:
    - target: {fileID: 1649140972004432, guid: 4723ededa39a5fb4daa7092be6d8a217, type: 3}
      propertyPath: m_Name
      value: mass50gss Variant
      objectReference: {fileID: 0}
    - target: {fileID: 4627494059906786, guid: 4723ededa39a5fb4daa7092be6d8a217, type: 3}
      propertyPath: m_LocalPosition.x
      value: -1.465
      objectReference: {fileID: 0}
    - target: {fileID: 4627494059906786, guid: 4723ededa39a5fb4daa7092be6d8a217, type: 3}
      propertyPath: m_LocalPosition.y
      value: 3.55
      objectReference: {fileID: 0}
    - target: {fileID: 4627494059906786, guid: 4723ededa39a5fb4daa7092be6d8a217, type: 3}
      propertyPath: m_LocalPosition.z
      value: 0
      objectReference: {fileID: 0}
    - target: {fileID: 4627494059906786, guid: 4723ededa39a5fb4daa7092be6d8a217, type: 3}
      propertyPath: m_LocalRotation.x
      value: 0
      objectReference: {fileID: 0}
    - target: {fileID: 4627494059906786, guid: 4723ededa39a5fb4daa7092be6d8a217, type: 3}
      propertyPath: m_LocalRotation.y
      value: 0
      objectReference: {fileID: 0}
    - target: {fileID: 4627494059906786, guid: 4723ededa39a5fb4daa7092be6d8a217, type: 3}
      propertyPath: m_LocalRotation.z
      value: 0
      objectReference: {fileID: 0}
    - target: {fileID: 4627494059906786, guid: 4723ededa39a5fb4daa7092be6d8a217, type: 3}
      propertyPath: m_LocalRotation.w
      value: 1
      objectReference: {fileID: 0}
    - target: {fileID: 4627494059906786, guid: 4723ededa39a5fb4daa7092be6d8a217, type: 3}
      propertyPath: m_RootOrder
      value: 0
      objectReference: {fileID: 0}
    - target: {fileID: 4627494059906786, guid: 4723ededa39a5fb4daa7092be6d8a217, type: 3}
      propertyPath: m_LocalEulerAnglesHint.x
      value: 0
      objectReference: {fileID: 0}
    - target: {fileID: 4627494059906786, guid: 4723ededa39a5fb4daa7092be6d8a217, type: 3}
      propertyPath: m_LocalEulerAnglesHint.y
      value: 0
      objectReference: {fileID: 0}
    - target: {fileID: 4627494059906786, guid: 4723ededa39a5fb4daa7092be6d8a217, type: 3}
      propertyPath: m_LocalEulerAnglesHint.z
      value: 0
      objectReference: {fileID: 0}
    - target: {fileID: 4627494059906786, guid: 4723ededa39a5fb4daa7092be6d8a217, type: 3}
      propertyPath: m_LocalScale.y
      value: 0.8
      objectReference: {fileID: 0}
    - target: {fileID: 4680451745360260, guid: 4723ededa39a5fb4daa7092be6d8a217, type: 3}
      propertyPath: m_LocalPosition.x
      value: -0.03155
      objectReference: {fileID: 0}
    - target: {fileID: 4680451745360260, guid: 4723ededa39a5fb4daa7092be6d8a217, type: 3}
      propertyPath: m_LocalScale.x
      value: 0.12658
      objectReference: {fileID: 0}
    - target: {fileID: 4680451745360260, guid: 4723ededa39a5fb4daa7092be6d8a217, type: 3}
      propertyPath: m_LocalScale.z
      value: 0.12658
      objectReference: {fileID: 0}
    - target: {fileID: 4111752812933294, guid: 4723ededa39a5fb4daa7092be6d8a217, type: 3}
      propertyPath: m_LocalPosition.z
      value: -0.0316
      objectReference: {fileID: 0}
    - target: {fileID: 4111752812933294, guid: 4723ededa39a5fb4daa7092be6d8a217, type: 3}
      propertyPath: m_LocalScale.x
      value: 0.12658
      objectReference: {fileID: 0}
    - target: {fileID: 4111752812933294, guid: 4723ededa39a5fb4daa7092be6d8a217, type: 3}
      propertyPath: m_LocalScale.z
      value: 0.12658
      objectReference: {fileID: 0}
    - target: {fileID: 4472784440810424, guid: 4723ededa39a5fb4daa7092be6d8a217, type: 3}
      propertyPath: m_LocalPosition.z
      value: 0.0316
      objectReference: {fileID: 0}
    - target: {fileID: 4472784440810424, guid: 4723ededa39a5fb4daa7092be6d8a217, type: 3}
      propertyPath: m_LocalScale.x
      value: 0.12658
      objectReference: {fileID: 0}
    - target: {fileID: 4472784440810424, guid: 4723ededa39a5fb4daa7092be6d8a217, type: 3}
      propertyPath: m_LocalScale.z
      value: 0.12658
      objectReference: {fileID: 0}
    - target: {fileID: 33919137355912924, guid: 4723ededa39a5fb4daa7092be6d8a217,
        type: 3}
      propertyPath: m_Mesh
      value: 
      objectReference: {fileID: 0}
    - target: {fileID: 33173591757643660, guid: 4723ededa39a5fb4daa7092be6d8a217,
        type: 3}
      propertyPath: m_Mesh
      value: 
      objectReference: {fileID: 0}
    - target: {fileID: 33527601476760676, guid: 4723ededa39a5fb4daa7092be6d8a217,
        type: 3}
      propertyPath: m_Mesh
      value: 
      objectReference: {fileID: 0}
    - target: {fileID: 64853978858442964, guid: 4723ededa39a5fb4daa7092be6d8a217,
        type: 3}
      propertyPath: m_Mesh
      value: 
      objectReference: {fileID: 0}
    - target: {fileID: 64791089689272876, guid: 4723ededa39a5fb4daa7092be6d8a217,
        type: 3}
      propertyPath: m_Mesh
      value: 
      objectReference: {fileID: 0}
    - target: {fileID: 64108153663115338, guid: 4723ededa39a5fb4daa7092be6d8a217,
        type: 3}
      propertyPath: m_Mesh
      value: 
      objectReference: {fileID: 0}
    m_RemovedComponents: []
  m_SourcePrefab: {fileID: 100100000, guid: 4723ededa39a5fb4daa7092be6d8a217, type: 3}
--- !u!1 &529651543586094451 stripped
GameObject:
  m_CorrespondingSourceObject: {fileID: 1649140972004432, guid: 4723ededa39a5fb4daa7092be6d8a217,
    type: 3}
  m_PrefabInstance: {fileID: 530413923732396323}
  m_PrefabAsset: {fileID: 0}
