%YAML 1.1
%TAG !u! tag:unity3d.com,2011:
--- !u!1045 &1
EditorBuildSettings:
  m_ObjectHideFlags: 0
  serializedVersion: 2
  m_Scenes:
  - enabled: 1
    path: Assets/Scenes/SpawnRopePulleyTableAndroidTesting.unity
    guid: 4392a58752d6511418203ee5332b72f1
  m_configObjects: {}
