%YAML 1.1
%TAG !u! tag:unity3d.com,2011:
--- !u!114 &11400000
MonoBehaviour:
  m_ObjectHideFlags: 0
  m_CorrespondingSourceObject: {fileID: 0}
  m_PrefabInstance: {fileID: 0}
  m_PrefabAsset: {fileID: 0}
  m_GameObject: {fileID: 0}
  m_Enabled: 1
  m_EditorHideFlags: 0
  m_Script: {fileID: 680703436, guid: 4f0627da958b4bb78c260446066f065f, type: 3}
  m_Name: ProBuilderPreferences
  m_EditorClassIdentifier: 
  m_Bool_keys:
  - pb_SmoothingGroupEditor::m_ShowPreview
  - pb_SmoothingGroupEditor::m_DrawNormals
  m_Int_keys:
  - pbHandleAlignment
  - pbDefaultEditLevel
  - pbDefaultSelectionMode
  - pbExtrudeMethod
  m_Float_keys:
  - pbEditorScroll.x
  - pbEditorScroll.y
  - pbExtrudeDistance
  m_String_keys:
  - pbCurrentMaterialPalette
  m_Color_keys: []
  m_Material_keys: []
  m_Bool_values: 0101
  m_Int_values: 00000000010000000200000002000000
  m_Float_values:
  - 0
  - 0
  - 0.5
  m_String_values:
  - Assets/ProBuilder Data/Default Material Palette.asset
  m_Color_values: []
  m_Material_values: []
