%YAML 1.1
%TAG !u! tag:unity3d.com,2011:
--- !u!1 &937388892447316561
GameObject:
  m_ObjectHideFlags: 0
  m_CorrespondingSourceObject: {fileID: 0}
  m_PrefabInstance: {fileID: 0}
  m_PrefabAsset: {fileID: 0}
  serializedVersion: 6
  m_Component:
  - component: {fileID: 939529434545945109}
  m_Layer: 12
  m_Name: end
  m_TagString: Measure
  m_Icon: {fileID: 0}
  m_NavMeshLayer: 0
  m_StaticEditorFlags: 0
  m_IsActive: 1
--- !u!4 &939529434545945109
Transform:
  m_ObjectHideFlags: 0
  m_CorrespondingSourceObject: {fileID: 0}
  m_PrefabInstance: {fileID: 0}
  m_PrefabAsset: {fileID: 0}
  m_GameObject: {fileID: 937388892447316561}
  m_LocalRotation: {x: -0, y: -0, z: -0, w: 1}
  m_LocalPosition: {x: 0.5, y: 0, z: -0.01}
  m_LocalScale: {x: 1, y: 1, z: 1}
  m_Children: []
  m_Father: {fileID: 939515600145295427}
  m_RootOrder: 3
  m_LocalEulerAnglesHint: {x: 0, y: 0, z: 0}
--- !u!1 &937669508188942127
GameObject:
  m_ObjectHideFlags: 0
  m_CorrespondingSourceObject: {fileID: 0}
  m_PrefabInstance: {fileID: 0}
  m_PrefabAsset: {fileID: 0}
  serializedVersion: 6
  m_Component:
  - component: {fileID: 939097058255631129}
  - component: {fileID: 968836051813219353}
  - component: {fileID: 960414983436249355}
  - component: {fileID: 999848546759755251}
  m_Layer: 12
  m_Name: view
  m_TagString: Measure
  m_Icon: {fileID: 0}
  m_NavMeshLayer: 0
  m_StaticEditorFlags: 0
  m_IsActive: 1
--- !u!4 &939097058255631129
Transform:
  m_ObjectHideFlags: 0
  m_CorrespondingSourceObject: {fileID: 0}
  m_PrefabInstance: {fileID: 0}
  m_PrefabAsset: {fileID: 0}
  m_GameObject: {fileID: 937669508188942127}
  m_LocalRotation: {x: -0, y: -0, z: -0, w: 1}
  m_LocalPosition: {x: 0, y: 0, z: 0}
  m_LocalScale: {x: 1.02, y: 0.03, z: 0.02}
  m_Children: []
  m_Father: {fileID: 939515600145295427}
  m_RootOrder: 1
  m_LocalEulerAnglesHint: {x: 0, y: 0, z: 106.76}
--- !u!33 &968836051813219353
MeshFilter:
  m_ObjectHideFlags: 0
  m_CorrespondingSourceObject: {fileID: 0}
  m_PrefabInstance: {fileID: 0}
  m_PrefabAsset: {fileID: 0}
  m_GameObject: {fileID: 937669508188942127}
  m_Mesh: {fileID: 10202, guid: 0000000000000000e000000000000000, type: 0}
--- !u!23 &960414983436249355
MeshRenderer:
  m_ObjectHideFlags: 0
  m_CorrespondingSourceObject: {fileID: 0}
  m_PrefabInstance: {fileID: 0}
  m_PrefabAsset: {fileID: 0}
  m_GameObject: {fileID: 937669508188942127}
  m_Enabled: 1
  m_CastShadows: 1
  m_ReceiveShadows: 1
  m_DynamicOccludee: 1
  m_MotionVectors: 1
  m_LightProbeUsage: 1
  m_ReflectionProbeUsage: 1
  m_RenderingLayerMask: 4294967295
  m_RendererPriority: 0
  m_Materials:
  - {fileID: 2100000, guid: 278487642d12d4bf78416679d50d6fd7, type: 2}
  m_StaticBatchInfo:
    firstSubMesh: 0
    subMeshCount: 0
  m_StaticBatchRoot: {fileID: 0}
  m_ProbeAnchor: {fileID: 0}
  m_LightProbeVolumeOverride: {fileID: 0}
  m_ScaleInLightmap: 1
  m_PreserveUVs: 0
  m_IgnoreNormalsForChartDetection: 0
  m_ImportantGI: 0
  m_StitchLightmapSeams: 0
  m_SelectedEditorRenderState: 3
  m_MinimumChartSize: 4
  m_AutoUVMaxDistance: 0.5
  m_AutoUVMaxAngle: 89
  m_LightmapParameters: {fileID: 0}
  m_SortingLayerID: 0
  m_SortingLayer: 0
  m_SortingOrder: 0
--- !u!65 &999848546759755251
BoxCollider:
  m_ObjectHideFlags: 0
  m_CorrespondingSourceObject: {fileID: 0}
  m_PrefabInstance: {fileID: 0}
  m_PrefabAsset: {fileID: 0}
  m_GameObject: {fileID: 937669508188942127}
  m_Material: {fileID: 0}
  m_IsTrigger: 1
  m_Enabled: 1
  serializedVersion: 2
  m_Size: {x: 1, y: 1, z: 1}
  m_Center: {x: 0, y: 0, z: 0}
--- !u!1 &937771621063171807
GameObject:
  m_ObjectHideFlags: 0
  m_CorrespondingSourceObject: {fileID: 0}
  m_PrefabInstance: {fileID: 0}
  m_PrefabAsset: {fileID: 0}
  serializedVersion: 6
  m_Component:
  - component: {fileID: 939141308772830333}
  m_Layer: 12
  m_Name: start
  m_TagString: Measure
  m_Icon: {fileID: 0}
  m_NavMeshLayer: 0
  m_StaticEditorFlags: 0
  m_IsActive: 1
--- !u!4 &939141308772830333
Transform:
  m_ObjectHideFlags: 0
  m_CorrespondingSourceObject: {fileID: 0}
  m_PrefabInstance: {fileID: 0}
  m_PrefabAsset: {fileID: 0}
  m_GameObject: {fileID: 937771621063171807}
  m_LocalRotation: {x: 0, y: 0, z: 0, w: 1}
  m_LocalPosition: {x: -0.5, y: 0, z: -0.01}
  m_LocalScale: {x: 1, y: 1, z: 1}
  m_Children: []
  m_Father: {fileID: 939515600145295427}
  m_RootOrder: 2
  m_LocalEulerAnglesHint: {x: 0, y: 0, z: 0}
--- !u!1 &938113367861252697
GameObject:
  m_ObjectHideFlags: 0
  m_CorrespondingSourceObject: {fileID: 0}
  m_PrefabInstance: {fileID: 0}
  m_PrefabAsset: {fileID: 0}
  serializedVersion: 6
  m_Component:
  - component: {fileID: 939515600145295427}
  - component: {fileID: 905409249065034623}
  m_Layer: 12
  m_Name: mrGen
  m_TagString: Measure
  m_Icon: {fileID: 0}
  m_NavMeshLayer: 0
  m_StaticEditorFlags: 0
  m_IsActive: 1
--- !u!4 &939515600145295427
Transform:
  m_ObjectHideFlags: 0
  m_CorrespondingSourceObject: {fileID: 0}
  m_PrefabInstance: {fileID: 0}
  m_PrefabAsset: {fileID: 0}
  m_GameObject: {fileID: 938113367861252697}
  m_LocalRotation: {x: 0, y: 0, z: 0, w: 1}
  m_LocalPosition: {x: 0, y: 2, z: 0}
  m_LocalScale: {x: 1, y: 1, z: 1}
  m_Children:
  - {fileID: 943029276500259255}
  - {fileID: 939097058255631129}
  - {fileID: 939141308772830333}
  - {fileID: 939529434545945109}
  - {fileID: 943052526286312507}
  - {fileID: 943029275559791045}
  m_Father: {fileID: 0}
  m_RootOrder: 0
  m_LocalEulerAnglesHint: {x: 0, y: 0, z: 0}
--- !u!114 &905409249065034623
MonoBehaviour:
  m_ObjectHideFlags: 0
  m_CorrespondingSourceObject: {fileID: 0}
  m_PrefabInstance: {fileID: 0}
  m_PrefabAsset: {fileID: 0}
  m_GameObject: {fileID: 938113367861252697}
  m_Enabled: 1
  m_EditorHideFlags: 0
  m_Script: {fileID: 11500000, guid: f1a0a398f2a2ee34d99ff5c21d1639c0, type: 3}
  m_Name: 
  m_EditorClassIdentifier: 
  handedness: 0
  CountBackwards: 1
  startAt: {fileID: 939141308772830333}
  endAt: {fileID: 939529434545945109}
  scaleObject: {fileID: 939515600145295427}
  viewObject: {fileID: 939097058255631129}
  markings: {fileID: 943052526286312507}
  markSmallest: {fileID: 1718759382712376, guid: aec1f030f03ba3f4abc35829b545f5fb,
    type: 3}
  markMid: {fileID: 1562837385630482, guid: baede4a6d57640e4788dc34024430751, type: 3}
  markTallest: {fileID: 1366409320511660, guid: 229ee174c359aa94db706bd8943603fd,
    type: 3}
  lblCM: {fileID: 1671944538777772, guid: 7efed03307842e9479f72f19e6667c9f, type: 3}
  startMargin: 0.005
  endMargin: 0
  size: 3
  Pos: {x: 0, y: 1.5025, z: 0}
  RotationEuler: {x: 0, y: 0, z: -90}
--- !u!1 &938130971757018555
GameObject:
  m_ObjectHideFlags: 0
  m_CorrespondingSourceObject: {fileID: 0}
  m_PrefabInstance: {fileID: 0}
  m_PrefabAsset: {fileID: 0}
  serializedVersion: 6
  m_Component:
  - component: {fileID: 943052526286312507}
  m_Layer: 12
  m_Name: markings
  m_TagString: Measure
  m_Icon: {fileID: 0}
  m_NavMeshLayer: 0
  m_StaticEditorFlags: 0
  m_IsActive: 1
--- !u!4 &943052526286312507
Transform:
  m_ObjectHideFlags: 0
  m_CorrespondingSourceObject: {fileID: 0}
  m_PrefabInstance: {fileID: 0}
  m_PrefabAsset: {fileID: 0}
  m_GameObject: {fileID: 938130971757018555}
  m_LocalRotation: {x: 0, y: 0, z: 0, w: 1}
  m_LocalPosition: {x: 0, y: 0, z: 0}
  m_LocalScale: {x: 1, y: 1, z: 1}
  m_Children: []
  m_Father: {fileID: 939515600145295427}
  m_RootOrder: 4
  m_LocalEulerAnglesHint: {x: 0, y: 0, z: 0}
--- !u!1001 &938731735016036969
PrefabInstance:
  m_ObjectHideFlags: 0
  serializedVersion: 2
  m_Modification:
    m_TransformParent: {fileID: 939515600145295427}
    m_Modifications:
    - target: {fileID: 1366409320511660, guid: 0d3cf7dcb8a2b544982f5f36e1e58832, type: 3}
      propertyPath: m_Name
      value: MarkProjected1
      objectReference: {fileID: 0}
    - target: {fileID: 4885866674858974, guid: 0d3cf7dcb8a2b544982f5f36e1e58832, type: 3}
      propertyPath: m_LocalPosition.x
      value: 0
      objectReference: {fileID: 0}
    - target: {fileID: 4885866674858974, guid: 0d3cf7dcb8a2b544982f5f36e1e58832, type: 3}
      propertyPath: m_LocalPosition.y
      value: 0
      objectReference: {fileID: 0}
    - target: {fileID: 4885866674858974, guid: 0d3cf7dcb8a2b544982f5f36e1e58832, type: 3}
      propertyPath: m_LocalPosition.z
      value: 0
      objectReference: {fileID: 0}
    - target: {fileID: 4885866674858974, guid: 0d3cf7dcb8a2b544982f5f36e1e58832, type: 3}
      propertyPath: m_LocalRotation.x
      value: 0
      objectReference: {fileID: 0}
    - target: {fileID: 4885866674858974, guid: 0d3cf7dcb8a2b544982f5f36e1e58832, type: 3}
      propertyPath: m_LocalRotation.y
      value: 0
      objectReference: {fileID: 0}
    - target: {fileID: 4885866674858974, guid: 0d3cf7dcb8a2b544982f5f36e1e58832, type: 3}
      propertyPath: m_LocalRotation.z
      value: 0
      objectReference: {fileID: 0}
    - target: {fileID: 4885866674858974, guid: 0d3cf7dcb8a2b544982f5f36e1e58832, type: 3}
      propertyPath: m_LocalRotation.w
      value: 1
      objectReference: {fileID: 0}
    - target: {fileID: 4885866674858974, guid: 0d3cf7dcb8a2b544982f5f36e1e58832, type: 3}
      propertyPath: m_RootOrder
      value: 0
      objectReference: {fileID: 0}
    - target: {fileID: 4885866674858974, guid: 0d3cf7dcb8a2b544982f5f36e1e58832, type: 3}
      propertyPath: m_LocalEulerAnglesHint.x
      value: 0
      objectReference: {fileID: 0}
    - target: {fileID: 4885866674858974, guid: 0d3cf7dcb8a2b544982f5f36e1e58832, type: 3}
      propertyPath: m_LocalEulerAnglesHint.y
      value: 0
      objectReference: {fileID: 0}
    - target: {fileID: 4885866674858974, guid: 0d3cf7dcb8a2b544982f5f36e1e58832, type: 3}
      propertyPath: m_LocalEulerAnglesHint.z
      value: 0
      objectReference: {fileID: 0}
    - target: {fileID: 4936465873292986, guid: 0d3cf7dcb8a2b544982f5f36e1e58832, type: 3}
      propertyPath: m_LocalScale.y
      value: 0.016
      objectReference: {fileID: 0}
    - target: {fileID: 23125933628327332, guid: 0d3cf7dcb8a2b544982f5f36e1e58832,
        type: 3}
      propertyPath: m_Materials.Array.data[0]
      value: 
      objectReference: {fileID: 2100000, guid: 83b0018e22cec4650b2f51e7b1cae99f, type: 2}
    m_RemovedComponents: []
  m_SourcePrefab: {fileID: 100100000, guid: 0d3cf7dcb8a2b544982f5f36e1e58832, type: 3}
--- !u!4 &943029276500259255 stripped
Transform:
  m_CorrespondingSourceObject: {fileID: 4885866674858974, guid: 0d3cf7dcb8a2b544982f5f36e1e58832,
    type: 3}
  m_PrefabInstance: {fileID: 938731735016036969}
  m_PrefabAsset: {fileID: 0}
--- !u!1001 &938731735956988443
PrefabInstance:
  m_ObjectHideFlags: 0
  serializedVersion: 2
  m_Modification:
    m_TransformParent: {fileID: 939515600145295427}
    m_Modifications:
    - target: {fileID: 1366409320511660, guid: 0d3cf7dcb8a2b544982f5f36e1e58832, type: 3}
      propertyPath: m_Name
      value: MarkProjected2
      objectReference: {fileID: 0}
    - target: {fileID: 1366409320511660, guid: 0d3cf7dcb8a2b544982f5f36e1e58832, type: 3}
      propertyPath: m_IsActive
      value: 0
      objectReference: {fileID: 0}
    - target: {fileID: 4885866674858974, guid: 0d3cf7dcb8a2b544982f5f36e1e58832, type: 3}
      propertyPath: m_LocalPosition.x
      value: 0
      objectReference: {fileID: 0}
    - target: {fileID: 4885866674858974, guid: 0d3cf7dcb8a2b544982f5f36e1e58832, type: 3}
      propertyPath: m_LocalPosition.y
      value: 0
      objectReference: {fileID: 0}
    - target: {fileID: 4885866674858974, guid: 0d3cf7dcb8a2b544982f5f36e1e58832, type: 3}
      propertyPath: m_LocalPosition.z
      value: 0
      objectReference: {fileID: 0}
    - target: {fileID: 4885866674858974, guid: 0d3cf7dcb8a2b544982f5f36e1e58832, type: 3}
      propertyPath: m_LocalRotation.x
      value: 0
      objectReference: {fileID: 0}
    - target: {fileID: 4885866674858974, guid: 0d3cf7dcb8a2b544982f5f36e1e58832, type: 3}
      propertyPath: m_LocalRotation.y
      value: 0
      objectReference: {fileID: 0}
    - target: {fileID: 4885866674858974, guid: 0d3cf7dcb8a2b544982f5f36e1e58832, type: 3}
      propertyPath: m_LocalRotation.z
      value: 0
      objectReference: {fileID: 0}
    - target: {fileID: 4885866674858974, guid: 0d3cf7dcb8a2b544982f5f36e1e58832, type: 3}
      propertyPath: m_LocalRotation.w
      value: 1
      objectReference: {fileID: 0}
    - target: {fileID: 4885866674858974, guid: 0d3cf7dcb8a2b544982f5f36e1e58832, type: 3}
      propertyPath: m_RootOrder
      value: 5
      objectReference: {fileID: 0}
    - target: {fileID: 4885866674858974, guid: 0d3cf7dcb8a2b544982f5f36e1e58832, type: 3}
      propertyPath: m_LocalEulerAnglesHint.x
      value: 0
      objectReference: {fileID: 0}
    - target: {fileID: 4885866674858974, guid: 0d3cf7dcb8a2b544982f5f36e1e58832, type: 3}
      propertyPath: m_LocalEulerAnglesHint.y
      value: 0
      objectReference: {fileID: 0}
    - target: {fileID: 4885866674858974, guid: 0d3cf7dcb8a2b544982f5f36e1e58832, type: 3}
      propertyPath: m_LocalEulerAnglesHint.z
      value: 0
      objectReference: {fileID: 0}
    - target: {fileID: 4936465873292986, guid: 0d3cf7dcb8a2b544982f5f36e1e58832, type: 3}
      propertyPath: m_LocalScale.y
      value: 0.016
      objectReference: {fileID: 0}
    - target: {fileID: 23125933628327332, guid: 0d3cf7dcb8a2b544982f5f36e1e58832,
        type: 3}
      propertyPath: m_Materials.Array.data[0]
      value: 
      objectReference: {fileID: 2100000, guid: 83b0018e22cec4650b2f51e7b1cae99f, type: 2}
    m_RemovedComponents: []
  m_SourcePrefab: {fileID: 100100000, guid: 0d3cf7dcb8a2b544982f5f36e1e58832, type: 3}
--- !u!4 &943029275559791045 stripped
Transform:
  m_CorrespondingSourceObject: {fileID: 4885866674858974, guid: 0d3cf7dcb8a2b544982f5f36e1e58832,
    type: 3}
  m_PrefabInstance: {fileID: 938731735956988443}
  m_PrefabAsset: {fileID: 0}
