%YAML 1.1
%TAG !u! tag:unity3d.com,2011:
--- !u!1 &3792489399534373472
GameObject:
  m_ObjectHideFlags: 0
  m_CorrespondingSourceObject: {fileID: 0}
  m_PrefabInstance: {fileID: 0}
  m_PrefabAsset: {fileID: 0}
  serializedVersion: 6
  m_Component:
  - component: {fileID: 3792489399534373477}
  - component: {fileID: 3792489399534373476}
  - component: {fileID: 3792489399534373479}
  - component: {fileID: 3792489399534373478}
  - component: {fileID: 3792489399534373473}
  m_Layer: 0
  m_Name: MarkerSquare
  m_TagString: Untagged
  m_Icon: {fileID: 0}
  m_NavMeshLayer: 0
  m_StaticEditorFlags: 127
  m_IsActive: 1
--- !u!4 &3792489399534373477
Transform:
  m_ObjectHideFlags: 0
  m_CorrespondingSourceObject: {fileID: 0}
  m_PrefabInstance: {fileID: 0}
  m_PrefabAsset: {fileID: 0}
  m_GameObject: {fileID: 3792489399534373472}
  m_LocalRotation: {x: -0.6532815, y: -0.27059805, z: 0.2705981, w: 0.6532815}
  m_LocalPosition: {x: 0.894, y: 2, z: 0}
  m_LocalScale: {x: 0.1, y: 0.1, z: 0.3}
  m_Children: []
  m_Father: {fileID: 0}
  m_RootOrder: 0
  m_LocalEulerAnglesHint: {x: -45, y: -90.00001, z: 90.00001}
--- !u!33 &3792489399534373476
MeshFilter:
  m_ObjectHideFlags: 0
  m_CorrespondingSourceObject: {fileID: 0}
  m_PrefabInstance: {fileID: 0}
  m_PrefabAsset: {fileID: 0}
  m_GameObject: {fileID: 3792489399534373472}
  m_Mesh: {fileID: 0}
--- !u!23 &3792489399534373479
MeshRenderer:
  m_ObjectHideFlags: 0
  m_CorrespondingSourceObject: {fileID: 0}
  m_PrefabInstance: {fileID: 0}
  m_PrefabAsset: {fileID: 0}
  m_GameObject: {fileID: 3792489399534373472}
  m_Enabled: 1
  m_CastShadows: 2
  m_ReceiveShadows: 1
  m_DynamicOccludee: 1
  m_MotionVectors: 1
  m_LightProbeUsage: 1
  m_ReflectionProbeUsage: 1
  m_RenderingLayerMask: 1
  m_RendererPriority: 0
  m_Materials:
  - {fileID: 2100000, guid: f8af10ae2c674e569782e57b09c76a13, type: 2}
  m_StaticBatchInfo:
    firstSubMesh: 0
    subMeshCount: 0
  m_StaticBatchRoot: {fileID: 0}
  m_ProbeAnchor: {fileID: 0}
  m_LightProbeVolumeOverride: {fileID: 0}
  m_ScaleInLightmap: 1
  m_PreserveUVs: 0
  m_IgnoreNormalsForChartDetection: 0
  m_ImportantGI: 0
  m_StitchLightmapSeams: 0
  m_SelectedEditorRenderState: 2
  m_MinimumChartSize: 4
  m_AutoUVMaxDistance: 0.5
  m_AutoUVMaxAngle: 89
  m_LightmapParameters: {fileID: 0}
  m_SortingLayerID: 0
  m_SortingLayer: 0
  m_SortingOrder: 0
--- !u!114 &3792489399534373478
MonoBehaviour:
  m_ObjectHideFlags: 0
  m_CorrespondingSourceObject: {fileID: 0}
  m_PrefabInstance: {fileID: 0}
  m_PrefabAsset: {fileID: 0}
  m_GameObject: {fileID: 3792489399534373472}
  m_Enabled: 1
  m_EditorHideFlags: 0
  m_Script: {fileID: 232430130, guid: 4f0627da958b4bb78c260446066f065f, type: 3}
  m_Name: 
  m_EditorClassIdentifier: 
  _quads:
  - _indices: 000000000100000002000000010000000300000002000000
    _distinctIndices: 00000000010000000200000003000000
    _edges:
    - x: 0
      y: 1
    - x: 2
      y: 0
    - x: 1
      y: 3
    - x: 3
      y: 2
    _smoothingGroup: 0
    _uv:
      useWorldSpace: 0
      flipU: 0
      flipV: 0
      swapUV: 0
      fill: 1
      scale: {x: 1, y: 1}
      offset: {x: 0, y: 0}
      rotation: 0
      justify: 0
      localPivot: {x: -0.7071068, y: 0.025}
      localSize: {x: 0, y: 0}
      anchor: 9
    _mat: {fileID: 2100000, guid: f8af10ae2c674e569782e57b09c76a13, type: 2}
    manualUV: 0
    textureGroup: -1
  - _indices: 040000000500000006000000050000000700000006000000
    _distinctIndices: 04000000050000000600000007000000
    _edges:
    - x: 4
      y: 5
    - x: 6
      y: 4
    - x: 5
      y: 7
    - x: 7
      y: 6
    _smoothingGroup: 0
    _uv:
      useWorldSpace: 0
      flipU: 0
      flipV: 0
      swapUV: 0
      fill: 1
      scale: {x: 1, y: 1}
      offset: {x: 0, y: 0}
      rotation: 0
      justify: 0
      localPivot: {x: 0.7071068, y: 0.025}
      localSize: {x: 0, y: 0}
      anchor: 9
    _mat: {fileID: 2100000, guid: f8af10ae2c674e569782e57b09c76a13, type: 2}
    manualUV: 0
    textureGroup: -1
  - _indices: 08000000090000000a000000090000000b0000000a000000
    _distinctIndices: 08000000090000000a0000000b000000
    _edges:
    - x: 8
      y: 9
    - x: 10
      y: 8
    - x: 9
      y: 11
    - x: 11
      y: 10
    _smoothingGroup: 0
    _uv:
      useWorldSpace: 0
      flipU: 0
      flipV: 0
      swapUV: 0
      fill: 1
      scale: {x: 1, y: 1}
      offset: {x: 0, y: 0}
      rotation: 0
      justify: 0
      localPivot: {x: 0.7071068, y: 0.025}
      localSize: {x: 0, y: 0}
      anchor: 9
    _mat: {fileID: 2100000, guid: f8af10ae2c674e569782e57b09c76a13, type: 2}
    manualUV: 0
    textureGroup: -1
  - _indices: 0c0000000d0000000e0000000d0000000f0000000e000000
    _distinctIndices: 0c0000000d0000000e0000000f000000
    _edges:
    - x: 12
      y: 13
    - x: 14
      y: 12
    - x: 13
      y: 15
    - x: 15
      y: 14
    _smoothingGroup: 0
    _uv:
      useWorldSpace: 0
      flipU: 0
      flipV: 0
      swapUV: 0
      fill: 1
      scale: {x: 1, y: 1}
      offset: {x: 0, y: 0}
      rotation: 0
      justify: 0
      localPivot: {x: -0.7071069, y: 0.025}
      localSize: {x: 0, y: 0}
      anchor: 9
    _mat: {fileID: 2100000, guid: f8af10ae2c674e569782e57b09c76a13, type: 2}
    manualUV: 0
    textureGroup: -1
  - _indices: 100000001100000012000000110000001300000012000000
    _distinctIndices: 10000000110000001200000013000000
    _edges:
    - x: 16
      y: 17
    - x: 18
      y: 16
    - x: 17
      y: 19
    - x: 19
      y: 18
    _smoothingGroup: 0
    _uv:
      useWorldSpace: 0
      flipU: 0
      flipV: 0
      swapUV: 0
      fill: 1
      scale: {x: 1, y: 1}
      offset: {x: 0, y: 0}
      rotation: 0
      justify: 0
      localPivot: {x: 0.70710677, y: 0.025}
      localSize: {x: 0, y: 0}
      anchor: 9
    _mat: {fileID: 2100000, guid: f8af10ae2c674e569782e57b09c76a13, type: 2}
    manualUV: 0
    textureGroup: -1
  - _indices: 140000001500000016000000150000001700000016000000
    _distinctIndices: 14000000150000001600000017000000
    _edges:
    - x: 20
      y: 21
    - x: 22
      y: 20
    - x: 21
      y: 23
    - x: 23
      y: 22
    _smoothingGroup: 0
    _uv:
      useWorldSpace: 0
      flipU: 0
      flipV: 0
      swapUV: 0
      fill: 1
      scale: {x: 1, y: 1}
      offset: {x: 0, y: 0}
      rotation: 0
      justify: 0
      localPivot: {x: -0.7071067, y: 0.025}
      localSize: {x: 0, y: 0}
      anchor: 9
    _mat: {fileID: 2100000, guid: f8af10ae2c674e569782e57b09c76a13, type: 2}
    manualUV: 0
    textureGroup: -1
  - _indices: 18000000190000001a000000190000001b0000001a000000
    _distinctIndices: 18000000190000001a0000001b000000
    _edges:
    - x: 24
      y: 25
    - x: 26
      y: 24
    - x: 25
      y: 27
    - x: 27
      y: 26
    _smoothingGroup: 0
    _uv:
      useWorldSpace: 0
      flipU: 0
      flipV: 0
      swapUV: 0
      fill: 1
      scale: {x: 1, y: 1}
      offset: {x: 0, y: 0}
      rotation: 0
      justify: 0
      localPivot: {x: -0.7071068, y: 0.025}
      localSize: {x: 0, y: 0}
      anchor: 9
    _mat: {fileID: 2100000, guid: f8af10ae2c674e569782e57b09c76a13, type: 2}
    manualUV: 0
    textureGroup: -1
  - _indices: 1c0000001d0000001e0000001d0000001f0000001e000000
    _distinctIndices: 1c0000001d0000001e0000001f000000
    _edges:
    - x: 28
      y: 29
    - x: 30
      y: 28
    - x: 29
      y: 31
    - x: 31
      y: 30
    _smoothingGroup: 0
    _uv:
      useWorldSpace: 0
      flipU: 0
      flipV: 0
      swapUV: 0
      fill: 1
      scale: {x: 1, y: 1}
      offset: {x: 0, y: 0}
      rotation: 0
      justify: 0
      localPivot: {x: 0.70710677, y: 0.025}
      localSize: {x: 0, y: 0}
      anchor: 9
    _mat: {fileID: 2100000, guid: f8af10ae2c674e569782e57b09c76a13, type: 2}
    manualUV: 0
    textureGroup: -1
  - _indices: 200000002100000022000000210000002300000022000000
    _distinctIndices: 20000000210000002200000023000000
    _edges:
    - x: 32
      y: 33
    - x: 34
      y: 32
    - x: 33
      y: 35
    - x: 35
      y: 34
    _smoothingGroup: 0
    _uv:
      useWorldSpace: 0
      flipU: 0
      flipV: 0
      swapUV: 0
      fill: 1
      scale: {x: 1, y: 1}
      offset: {x: 0, y: 0}
      rotation: 0
      justify: 0
      localPivot: {x: -0.7071068, y: 0.075}
      localSize: {x: 0, y: 0}
      anchor: 9
    _mat: {fileID: 2100000, guid: f8af10ae2c674e569782e57b09c76a13, type: 2}
    manualUV: 0
    textureGroup: -1
  - _indices: 240000002500000026000000250000002700000026000000
    _distinctIndices: 24000000250000002600000027000000
    _edges:
    - x: 36
      y: 37
    - x: 38
      y: 36
    - x: 37
      y: 39
    - x: 39
      y: 38
    _smoothingGroup: 0
    _uv:
      useWorldSpace: 0
      flipU: 0
      flipV: 0
      swapUV: 0
      fill: 1
      scale: {x: 1, y: 1}
      offset: {x: 0, y: 0}
      rotation: 0
      justify: 0
      localPivot: {x: 0.7071068, y: 0.075}
      localSize: {x: 0, y: 0}
      anchor: 9
    _mat: {fileID: 2100000, guid: f8af10ae2c674e569782e57b09c76a13, type: 2}
    manualUV: 0
    textureGroup: -1
  - _indices: 28000000290000002a000000290000002b0000002a000000
    _distinctIndices: 28000000290000002a0000002b000000
    _edges:
    - x: 40
      y: 41
    - x: 42
      y: 40
    - x: 41
      y: 43
    - x: 43
      y: 42
    _smoothingGroup: 0
    _uv:
      useWorldSpace: 0
      flipU: 0
      flipV: 0
      swapUV: 0
      fill: 1
      scale: {x: 1, y: 1}
      offset: {x: 0, y: 0}
      rotation: 0
      justify: 0
      localPivot: {x: 0.7071068, y: 0.075}
      localSize: {x: 0, y: 0}
      anchor: 9
    _mat: {fileID: 2100000, guid: f8af10ae2c674e569782e57b09c76a13, type: 2}
    manualUV: 0
    textureGroup: -1
  - _indices: 2c0000002d0000002e0000002d0000002f0000002e000000
    _distinctIndices: 2c0000002d0000002e0000002f000000
    _edges:
    - x: 44
      y: 45
    - x: 46
      y: 44
    - x: 45
      y: 47
    - x: 47
      y: 46
    _smoothingGroup: 0
    _uv:
      useWorldSpace: 0
      flipU: 0
      flipV: 0
      swapUV: 0
      fill: 1
      scale: {x: 1, y: 1}
      offset: {x: 0, y: 0}
      rotation: 0
      justify: 0
      localPivot: {x: -0.7071069, y: 0.075}
      localSize: {x: 0, y: 0}
      anchor: 9
    _mat: {fileID: 2100000, guid: f8af10ae2c674e569782e57b09c76a13, type: 2}
    manualUV: 0
    textureGroup: -1
  - _indices: 300000003100000032000000310000003300000032000000
    _distinctIndices: 30000000310000003200000033000000
    _edges:
    - x: 48
      y: 49
    - x: 50
      y: 48
    - x: 49
      y: 51
    - x: 51
      y: 50
    _smoothingGroup: 0
    _uv:
      useWorldSpace: 0
      flipU: 0
      flipV: 0
      swapUV: 0
      fill: 1
      scale: {x: 1, y: 1}
      offset: {x: 0, y: 0}
      rotation: 0
      justify: 0
      localPivot: {x: 0.70710677, y: 0.075}
      localSize: {x: 0, y: 0}
      anchor: 9
    _mat: {fileID: 2100000, guid: f8af10ae2c674e569782e57b09c76a13, type: 2}
    manualUV: 0
    textureGroup: -1
  - _indices: 340000003500000036000000350000003700000036000000
    _distinctIndices: 34000000350000003600000037000000
    _edges:
    - x: 52
      y: 53
    - x: 54
      y: 52
    - x: 53
      y: 55
    - x: 55
      y: 54
    _smoothingGroup: 0
    _uv:
      useWorldSpace: 0
      flipU: 0
      flipV: 0
      swapUV: 0
      fill: 1
      scale: {x: 1, y: 1}
      offset: {x: 0, y: 0}
      rotation: 0
      justify: 0
      localPivot: {x: -0.7071067, y: 0.075}
      localSize: {x: 0, y: 0}
      anchor: 9
    _mat: {fileID: 2100000, guid: f8af10ae2c674e569782e57b09c76a13, type: 2}
    manualUV: 0
    textureGroup: -1
  - _indices: 38000000390000003a000000390000003b0000003a000000
    _distinctIndices: 38000000390000003a0000003b000000
    _edges:
    - x: 56
      y: 57
    - x: 58
      y: 56
    - x: 57
      y: 59
    - x: 59
      y: 58
    _smoothingGroup: 0
    _uv:
      useWorldSpace: 0
      flipU: 0
      flipV: 0
      swapUV: 0
      fill: 1
      scale: {x: 1, y: 1}
      offset: {x: 0, y: 0}
      rotation: 0
      justify: 0
      localPivot: {x: -0.7071068, y: 0.075}
      localSize: {x: 0, y: 0}
      anchor: 9
    _mat: {fileID: 2100000, guid: f8af10ae2c674e569782e57b09c76a13, type: 2}
    manualUV: 0
    textureGroup: -1
  - _indices: 3c0000003d0000003e0000003d0000003f0000003e000000
    _distinctIndices: 3c0000003d0000003e0000003f000000
    _edges:
    - x: 60
      y: 61
    - x: 62
      y: 60
    - x: 61
      y: 63
    - x: 63
      y: 62
    _smoothingGroup: 0
    _uv:
      useWorldSpace: 0
      flipU: 0
      flipV: 0
      swapUV: 0
      fill: 1
      scale: {x: 1, y: 1}
      offset: {x: 0, y: 0}
      rotation: 0
      justify: 0
      localPivot: {x: 0.70710677, y: 0.075}
      localSize: {x: 0, y: 0}
      anchor: 9
    _mat: {fileID: 2100000, guid: f8af10ae2c674e569782e57b09c76a13, type: 2}
    manualUV: 0
    textureGroup: -1
  - _indices: 400000004100000042000000410000004300000042000000
    _distinctIndices: 40000000410000004200000043000000
    _edges:
    - x: 64
      y: 65
    - x: 66
      y: 64
    - x: 65
      y: 67
    - x: 67
      y: 66
    _smoothingGroup: 0
    _uv:
      useWorldSpace: 0
      flipU: 0
      flipV: 0
      swapUV: 0
      fill: 1
      scale: {x: 1, y: 1}
      offset: {x: 0, y: 0}
      rotation: 0
      justify: 0
      localPivot: {x: -0.5, y: -0.5}
      localSize: {x: 0, y: 0}
      anchor: 9
    _mat: {fileID: 2100000, guid: f8af10ae2c674e569782e57b09c76a13, type: 2}
    manualUV: 0
    textureGroup: -1
  - _indices: 440000004500000046000000450000004700000046000000
    _distinctIndices: 44000000450000004600000047000000
    _edges:
    - x: 68
      y: 69
    - x: 70
      y: 68
    - x: 69
      y: 71
    - x: 71
      y: 70
    _smoothingGroup: 0
    _uv:
      useWorldSpace: 0
      flipU: 0
      flipV: 0
      swapUV: 0
      fill: 1
      scale: {x: 1, y: 1}
      offset: {x: 0, y: 0}
      rotation: 0
      justify: 0
      localPivot: {x: 0.5, y: -0.5}
      localSize: {x: 0, y: 0}
      anchor: 9
    _mat: {fileID: 2100000, guid: f8af10ae2c674e569782e57b09c76a13, type: 2}
    manualUV: 0
    textureGroup: -1
  - _indices: 48000000490000004a000000490000004b0000004a000000
    _distinctIndices: 48000000490000004a0000004b000000
    _edges:
    - x: 72
      y: 73
    - x: 74
      y: 72
    - x: 73
      y: 75
    - x: 75
      y: 74
    _smoothingGroup: 0
    _uv:
      useWorldSpace: 0
      flipU: 0
      flipV: 0
      swapUV: 0
      fill: 1
      scale: {x: 1, y: 1}
      offset: {x: 0, y: 0}
      rotation: 0
      justify: 0
      localPivot: {x: 0.49999997, y: -0.50000006}
      localSize: {x: 0, y: 0}
      anchor: 9
    _mat: {fileID: 2100000, guid: f8af10ae2c674e569782e57b09c76a13, type: 2}
    manualUV: 0
    textureGroup: -1
  - _indices: 4c0000004d0000004e0000004d0000004f0000004e000000
    _distinctIndices: 4c0000004d0000004e0000004f000000
    _edges:
    - x: 76
      y: 77
    - x: 78
      y: 76
    - x: 77
      y: 79
    - x: 79
      y: 78
    _smoothingGroup: 0
    _uv:
      useWorldSpace: 0
      flipU: 0
      flipV: 0
      swapUV: 0
      fill: 1
      scale: {x: 1, y: 1}
      offset: {x: 0, y: 0}
      rotation: 0
      justify: 0
      localPivot: {x: -0.49999997, y: -0.50000006}
      localSize: {x: 0, y: 0}
      anchor: 9
    _mat: {fileID: 2100000, guid: f8af10ae2c674e569782e57b09c76a13, type: 2}
    manualUV: 0
    textureGroup: -1
  - _indices: 500000005100000052000000510000005300000052000000
    _distinctIndices: 50000000510000005200000053000000
    _edges:
    - x: 80
      y: 81
    - x: 82
      y: 80
    - x: 81
      y: 83
    - x: 83
      y: 82
    _smoothingGroup: 0
    _uv:
      useWorldSpace: 0
      flipU: 0
      flipV: 0
      swapUV: 0
      fill: 1
      scale: {x: 1, y: 1}
      offset: {x: 0, y: 0}
      rotation: 0
      justify: 0
      localPivot: {x: 0.49999994, y: -1.5}
      localSize: {x: 0, y: 0}
      anchor: 9
    _mat: {fileID: 2100000, guid: f8af10ae2c674e569782e57b09c76a13, type: 2}
    manualUV: 0
    textureGroup: -1
  - _indices: 540000005500000056000000550000005700000056000000
    _distinctIndices: 54000000550000005600000057000000
    _edges:
    - x: 84
      y: 85
    - x: 86
      y: 84
    - x: 85
      y: 87
    - x: 87
      y: 86
    _smoothingGroup: 0
    _uv:
      useWorldSpace: 0
      flipU: 0
      flipV: 0
      swapUV: 0
      fill: 1
      scale: {x: 1, y: 1}
      offset: {x: 0, y: 0}
      rotation: 0
      justify: 0
      localPivot: {x: -0.49999994, y: -1.5}
      localSize: {x: 0, y: 0}
      anchor: 9
    _mat: {fileID: 2100000, guid: f8af10ae2c674e569782e57b09c76a13, type: 2}
    manualUV: 0
    textureGroup: -1
  - _indices: 58000000590000005a000000590000005b0000005a000000
    _distinctIndices: 58000000590000005a0000005b000000
    _edges:
    - x: 88
      y: 89
    - x: 90
      y: 88
    - x: 89
      y: 91
    - x: 91
      y: 90
    _smoothingGroup: 0
    _uv:
      useWorldSpace: 0
      flipU: 0
      flipV: 0
      swapUV: 0
      fill: 1
      scale: {x: 1, y: 1}
      offset: {x: 0, y: 0}
      rotation: 0
      justify: 0
      localPivot: {x: -0.5, y: -1.5}
      localSize: {x: 0, y: 0}
      anchor: 9
    _mat: {fileID: 2100000, guid: f8af10ae2c674e569782e57b09c76a13, type: 2}
    manualUV: 0
    textureGroup: -1
  - _indices: 5c0000005d0000005e0000005d0000005f0000005e000000
    _distinctIndices: 5c0000005d0000005e0000005f000000
    _edges:
    - x: 92
      y: 93
    - x: 94
      y: 92
    - x: 93
      y: 95
    - x: 95
      y: 94
    _smoothingGroup: 0
    _uv:
      useWorldSpace: 0
      flipU: 0
      flipV: 0
      swapUV: 0
      fill: 1
      scale: {x: 1, y: 1}
      offset: {x: 0, y: 0}
      rotation: 0
      justify: 0
      localPivot: {x: 0.5, y: -1.5}
      localSize: {x: 0, y: 0}
      anchor: 9
    _mat: {fileID: 2100000, guid: f8af10ae2c674e569782e57b09c76a13, type: 2}
    manualUV: 0
    textureGroup: -1
  _sharedIndices:
  - array: 00000000090000004100000048000000
  - array: 01000000180000004000000059000000
  - array: 020000000b0000002000000029000000
  - array: 030000001a0000002100000038000000
  - array: 040000001d000000420000005b000000
  - array: 050000000c000000430000004a000000
  - array: 060000001f000000240000003d000000
  - array: 070000000e000000250000002c000000
  - array: 08000000110000004900000050000000
  - array: 0a000000130000002800000031000000
  - array: 0d000000140000004b00000052000000
  - array: 0f000000160000002d00000034000000
  - array: 10000000190000005100000058000000
  - array: 120000001b0000003000000039000000
  - array: 150000001c000000530000005a000000
  - array: 170000001e000000350000003c000000
  - array: 220000002b000000440000004d000000
  - array: 230000003a000000450000005c000000
  - array: 260000003f000000470000005e000000
  - array: 270000002e000000460000004f000000
  - array: 2a000000330000004c00000055000000
  - array: 2f000000360000004e00000057000000
  - array: 320000003b000000540000005d000000
  - array: 370000003e000000560000005f000000
  _vertices:
  - {x: 0, y: 0, z: 0}
  - {x: 1, y: 0, z: -1}
  - {x: 0, y: 0.05, z: 0}
  - {x: 1, y: 0.05, z: -1}
  - {x: 0.8400001, y: 0, z: -1}
  - {x: 0.0000000069938224, y: 0, z: -0.15999997}
  - {x: 0.8400001, y: 0.05, z: -1}
  - {x: 0.0000000069938224, y: 0.05, z: -0.15999997}
  - {x: -0.99999994, y: 0, z: -1.0000001}
  - {x: 0, y: 0, z: 0}
  - {x: -0.99999994, y: 0.05, z: -1.0000001}
  - {x: 0, y: 0.05, z: 0}
  - {x: 0.0000000069938224, y: 0, z: -0.15999997}
  - {x: -0.84, y: 0, z: -1.0000001}
  - {x: 0.0000000069938224, y: 0.05, z: -0.15999997}
  - {x: -0.84, y: 0.05, z: -1.0000001}
  - {x: 0.00000005563627, y: 0, z: -2}
  - {x: -0.99999994, y: 0, z: -1.0000001}
  - {x: 0.00000005563627, y: 0.05, z: -2}
  - {x: -0.99999994, y: 0.05, z: -1.0000001}
  - {x: -0.84, y: 0, z: -1.0000001}
  - {x: 0.00000005372829, y: 0, z: -1.84}
  - {x: -0.84, y: 0.05, z: -1.0000001}
  - {x: 0.00000005372829, y: 0.05, z: -1.84}
  - {x: 1, y: 0, z: -1}
  - {x: 0.00000005563627, y: 0, z: -2}
  - {x: 1, y: 0.05, z: -1}
  - {x: 0.00000005563627, y: 0.05, z: -2}
  - {x: 0.00000005372829, y: 0, z: -1.84}
  - {x: 0.8400001, y: 0, z: -1}
  - {x: 0.00000005372829, y: 0.05, z: -1.84}
  - {x: 0.8400001, y: 0.05, z: -1}
  - {x: 0, y: 0.05, z: 0}
  - {x: 1, y: 0.05, z: -1}
  - {x: 0, y: 0.1, z: 0}
  - {x: 1, y: 0.1, z: -1}
  - {x: 0.8400001, y: 0.05, z: -1}
  - {x: 0.0000000069938224, y: 0.05, z: -0.15999997}
  - {x: 0.8400001, y: 0.1, z: -1}
  - {x: 0.0000000069938224, y: 0.1, z: -0.15999997}
  - {x: -0.99999994, y: 0.05, z: -1.0000001}
  - {x: 0, y: 0.05, z: 0}
  - {x: -0.99999994, y: 0.1, z: -1.0000001}
  - {x: 0, y: 0.1, z: 0}
  - {x: 0.0000000069938224, y: 0.05, z: -0.15999997}
  - {x: -0.84, y: 0.05, z: -1.0000001}
  - {x: 0.0000000069938224, y: 0.1, z: -0.15999997}
  - {x: -0.84, y: 0.1, z: -1.0000001}
  - {x: 0.00000005563627, y: 0.05, z: -2}
  - {x: -0.99999994, y: 0.05, z: -1.0000001}
  - {x: 0.00000005563627, y: 0.1, z: -2}
  - {x: -0.99999994, y: 0.1, z: -1.0000001}
  - {x: -0.84, y: 0.05, z: -1.0000001}
  - {x: 0.00000005372829, y: 0.05, z: -1.84}
  - {x: -0.84, y: 0.1, z: -1.0000001}
  - {x: 0.00000005372829, y: 0.1, z: -1.84}
  - {x: 1, y: 0.05, z: -1}
  - {x: 0.00000005563627, y: 0.05, z: -2}
  - {x: 1, y: 0.1, z: -1}
  - {x: 0.00000005563627, y: 0.1, z: -2}
  - {x: 0.00000005372829, y: 0.05, z: -1.84}
  - {x: 0.8400001, y: 0.05, z: -1}
  - {x: 0.00000005372829, y: 0.1, z: -1.84}
  - {x: 0.8400001, y: 0.1, z: -1}
  - {x: 1, y: 0, z: -1}
  - {x: 0, y: 0, z: 0}
  - {x: 0.8400001, y: 0, z: -1}
  - {x: 0.0000000069938224, y: 0, z: -0.15999997}
  - {x: 0, y: 0.1, z: 0}
  - {x: 1, y: 0.1, z: -1}
  - {x: 0.0000000069938224, y: 0.1, z: -0.15999997}
  - {x: 0.8400001, y: 0.1, z: -1}
  - {x: 0, y: 0, z: 0}
  - {x: -0.99999994, y: 0, z: -1.0000001}
  - {x: 0.0000000069938224, y: 0, z: -0.15999997}
  - {x: -0.84, y: 0, z: -1.0000001}
  - {x: -0.99999994, y: 0.1, z: -1.0000001}
  - {x: 0, y: 0.1, z: 0}
  - {x: -0.84, y: 0.1, z: -1.0000001}
  - {x: 0.0000000069938224, y: 0.1, z: -0.15999997}
  - {x: -0.99999994, y: 0, z: -1.0000001}
  - {x: 0.00000005563627, y: 0, z: -2}
  - {x: -0.84, y: 0, z: -1.0000001}
  - {x: 0.00000005372829, y: 0, z: -1.84}
  - {x: 0.00000005563627, y: 0.1, z: -2}
  - {x: -0.99999994, y: 0.1, z: -1.0000001}
  - {x: 0.00000005372829, y: 0.1, z: -1.84}
  - {x: -0.84, y: 0.1, z: -1.0000001}
  - {x: 0.00000005563627, y: 0, z: -2}
  - {x: 1, y: 0, z: -1}
  - {x: 0.00000005372829, y: 0, z: -1.84}
  - {x: 0.8400001, y: 0, z: -1}
  - {x: 1, y: 0.1, z: -1}
  - {x: 0.00000005563627, y: 0.1, z: -2}
  - {x: 0.8400001, y: 0.1, z: -1}
  - {x: 0.00000005372829, y: 0.1, z: -1.84}
  _uv:
  - {x: 0, y: 0}
  - {x: -1.4142137, y: 0}
  - {x: 0, y: 0.05}
  - {x: -1.4142137, y: 0.05}
  - {x: 1.3010765, y: 0}
  - {x: 0.11313707, y: 0}
  - {x: 1.3010765, y: 0.05}
  - {x: 0.11313707, y: 0.05}
  - {x: 1.4142137, y: 0}
  - {x: 0, y: 0}
  - {x: 1.4142137, y: 0.05}
  - {x: 0, y: 0.05}
  - {x: -0.113137074, y: 0}
  - {x: -1.3010767, y: 0}
  - {x: -0.113137074, y: 0.05}
  - {x: -1.3010767, y: 0.05}
  - {x: 1.4142135, y: 0}
  - {x: 0.000000007231261, y: 0}
  - {x: 1.4142135, y: 0.05}
  - {x: 0.000000007231261, y: 0.05}
  - {x: -0.11313703, y: 0}
  - {x: -1.3010764, y: 0}
  - {x: -0.11313703, y: 0.05}
  - {x: -1.3010764, y: 0.05}
  - {x: -0.000000059604645, y: 0}
  - {x: -1.4142137, y: 0}
  - {x: -0.000000059604645, y: 0.05}
  - {x: -1.4142137, y: 0.05}
  - {x: 1.3010765, y: 0}
  - {x: 0.11313703, y: 0}
  - {x: 1.3010765, y: 0.05}
  - {x: 0.11313703, y: 0.05}
  - {x: 0, y: 0.05}
  - {x: -1.4142137, y: 0.05}
  - {x: 0, y: 0.1}
  - {x: -1.4142137, y: 0.1}
  - {x: 1.3010765, y: 0.05}
  - {x: 0.11313707, y: 0.05}
  - {x: 1.3010765, y: 0.1}
  - {x: 0.11313707, y: 0.1}
  - {x: 1.4142137, y: 0.05}
  - {x: 0, y: 0.05}
  - {x: 1.4142137, y: 0.1}
  - {x: 0, y: 0.1}
  - {x: -0.113137074, y: 0.05}
  - {x: -1.3010767, y: 0.05}
  - {x: -0.113137074, y: 0.1}
  - {x: -1.3010767, y: 0.1}
  - {x: 1.4142135, y: 0.05}
  - {x: 0.000000007231261, y: 0.05}
  - {x: 1.4142135, y: 0.1}
  - {x: 0.000000007231261, y: 0.1}
  - {x: -0.11313703, y: 0.05}
  - {x: -1.3010764, y: 0.05}
  - {x: -0.11313703, y: 0.1}
  - {x: -1.3010764, y: 0.1}
  - {x: -0.000000059604645, y: 0.05}
  - {x: -1.4142137, y: 0.05}
  - {x: -0.000000059604645, y: 0.1}
  - {x: -1.4142137, y: 0.1}
  - {x: 1.3010765, y: 0.05}
  - {x: 0.11313703, y: 0.05}
  - {x: 1.3010765, y: 0.1}
  - {x: 0.11313703, y: 0.1}
  - {x: -1, y: -1}
  - {x: 0, y: 0}
  - {x: -0.8400001, y: -1}
  - {x: -0.0000000069938224, y: -0.15999997}
  - {x: 0, y: 0}
  - {x: 1, y: -1}
  - {x: 0.0000000069938224, y: -0.15999997}
  - {x: 0.8400001, y: -1}
  - {x: 0, y: 0}
  - {x: 0.99999994, y: -1.0000001}
  - {x: -0.0000000069938224, y: -0.15999997}
  - {x: 0.84, y: -1.0000001}
  - {x: -0.99999994, y: -1.0000001}
  - {x: 0, y: 0}
  - {x: -0.84, y: -1.0000001}
  - {x: 0.0000000069938224, y: -0.15999997}
  - {x: 0.99999994, y: -1.0000001}
  - {x: -0.00000005563627, y: -2}
  - {x: 0.84, y: -1.0000001}
  - {x: -0.00000005372829, y: -1.84}
  - {x: 0.00000005563627, y: -2}
  - {x: -0.99999994, y: -1.0000001}
  - {x: 0.00000005372829, y: -1.84}
  - {x: -0.84, y: -1.0000001}
  - {x: -0.00000005563627, y: -2}
  - {x: -1, y: -1}
  - {x: -0.00000005372829, y: -1.84}
  - {x: -0.8400001, y: -1}
  - {x: 1, y: -1}
  - {x: 0.00000005563627, y: -2}
  - {x: 0.8400001, y: -1}
  - {x: 0.00000005372829, y: -1.84}
  _uv3: []
  _uv4: []
  _tangents: []
  _sharedIndicesUV: []
  _colors:
  - {r: 1, g: 1, b: 1, a: 1}
  - {r: 1, g: 1, b: 1, a: 1}
  - {r: 1, g: 1, b: 1, a: 1}
  - {r: 1, g: 1, b: 1, a: 1}
  - {r: 1, g: 1, b: 1, a: 1}
  - {r: 1, g: 1, b: 1, a: 1}
  - {r: 1, g: 1, b: 1, a: 1}
  - {r: 1, g: 1, b: 1, a: 1}
  - {r: 1, g: 1, b: 1, a: 1}
  - {r: 1, g: 1, b: 1, a: 1}
  - {r: 1, g: 1, b: 1, a: 1}
  - {r: 1, g: 1, b: 1, a: 1}
  - {r: 1, g: 1, b: 1, a: 1}
  - {r: 1, g: 1, b: 1, a: 1}
  - {r: 1, g: 1, b: 1, a: 1}
  - {r: 1, g: 1, b: 1, a: 1}
  - {r: 1, g: 1, b: 1, a: 1}
  - {r: 1, g: 1, b: 1, a: 1}
  - {r: 1, g: 1, b: 1, a: 1}
  - {r: 1, g: 1, b: 1, a: 1}
  - {r: 1, g: 1, b: 1, a: 1}
  - {r: 1, g: 1, b: 1, a: 1}
  - {r: 1, g: 1, b: 1, a: 1}
  - {r: 1, g: 1, b: 1, a: 1}
  - {r: 1, g: 1, b: 1, a: 1}
  - {r: 1, g: 1, b: 1, a: 1}
  - {r: 1, g: 1, b: 1, a: 1}
  - {r: 1, g: 1, b: 1, a: 1}
  - {r: 1, g: 1, b: 1, a: 1}
  - {r: 1, g: 1, b: 1, a: 1}
  - {r: 1, g: 1, b: 1, a: 1}
  - {r: 1, g: 1, b: 1, a: 1}
  - {r: 1, g: 1, b: 1, a: 1}
  - {r: 1, g: 1, b: 1, a: 1}
  - {r: 1, g: 1, b: 1, a: 1}
  - {r: 1, g: 1, b: 1, a: 1}
  - {r: 1, g: 1, b: 1, a: 1}
  - {r: 1, g: 1, b: 1, a: 1}
  - {r: 1, g: 1, b: 1, a: 1}
  - {r: 1, g: 1, b: 1, a: 1}
  - {r: 1, g: 1, b: 1, a: 1}
  - {r: 1, g: 1, b: 1, a: 1}
  - {r: 1, g: 1, b: 1, a: 1}
  - {r: 1, g: 1, b: 1, a: 1}
  - {r: 1, g: 1, b: 1, a: 1}
  - {r: 1, g: 1, b: 1, a: 1}
  - {r: 1, g: 1, b: 1, a: 1}
  - {r: 1, g: 1, b: 1, a: 1}
  - {r: 1, g: 1, b: 1, a: 1}
  - {r: 1, g: 1, b: 1, a: 1}
  - {r: 1, g: 1, b: 1, a: 1}
  - {r: 1, g: 1, b: 1, a: 1}
  - {r: 1, g: 1, b: 1, a: 1}
  - {r: 1, g: 1, b: 1, a: 1}
  - {r: 1, g: 1, b: 1, a: 1}
  - {r: 1, g: 1, b: 1, a: 1}
  - {r: 1, g: 1, b: 1, a: 1}
  - {r: 1, g: 1, b: 1, a: 1}
  - {r: 1, g: 1, b: 1, a: 1}
  - {r: 1, g: 1, b: 1, a: 1}
  - {r: 1, g: 1, b: 1, a: 1}
  - {r: 1, g: 1, b: 1, a: 1}
  - {r: 1, g: 1, b: 1, a: 1}
  - {r: 1, g: 1, b: 1, a: 1}
  - {r: 1, g: 1, b: 1, a: 1}
  - {r: 1, g: 1, b: 1, a: 1}
  - {r: 1, g: 1, b: 1, a: 1}
  - {r: 1, g: 1, b: 1, a: 1}
  - {r: 1, g: 1, b: 1, a: 1}
  - {r: 1, g: 1, b: 1, a: 1}
  - {r: 1, g: 1, b: 1, a: 1}
  - {r: 1, g: 1, b: 1, a: 1}
  - {r: 1, g: 1, b: 1, a: 1}
  - {r: 1, g: 1, b: 1, a: 1}
  - {r: 1, g: 1, b: 1, a: 1}
  - {r: 1, g: 1, b: 1, a: 1}
  - {r: 1, g: 1, b: 1, a: 1}
  - {r: 1, g: 1, b: 1, a: 1}
  - {r: 1, g: 1, b: 1, a: 1}
  - {r: 1, g: 1, b: 1, a: 1}
  - {r: 1, g: 1, b: 1, a: 1}
  - {r: 1, g: 1, b: 1, a: 1}
  - {r: 1, g: 1, b: 1, a: 1}
  - {r: 1, g: 1, b: 1, a: 1}
  - {r: 1, g: 1, b: 1, a: 1}
  - {r: 1, g: 1, b: 1, a: 1}
  - {r: 1, g: 1, b: 1, a: 1}
  - {r: 1, g: 1, b: 1, a: 1}
  - {r: 1, g: 1, b: 1, a: 1}
  - {r: 1, g: 1, b: 1, a: 1}
  - {r: 1, g: 1, b: 1, a: 1}
  - {r: 1, g: 1, b: 1, a: 1}
  - {r: 1, g: 1, b: 1, a: 1}
  - {r: 1, g: 1, b: 1, a: 1}
  - {r: 1, g: 1, b: 1, a: 1}
  - {r: 1, g: 1, b: 1, a: 1}
  userCollisions: 0
  isSelectable: 1
  unwrapParameters:
    hardAngle: 88
    packMargin: 4
    angleError: 8
    areaError: 15
  dontDestroyMeshOnDelete: 0
  m_selectedFaces: 
  m_SelectedEdges: []
  m_selectedTriangles: 
--- !u!64 &3792489399534373473
MeshCollider:
  m_ObjectHideFlags: 0
  m_CorrespondingSourceObject: {fileID: 0}
  m_PrefabInstance: {fileID: 0}
  m_PrefabAsset: {fileID: 0}
  m_GameObject: {fileID: 3792489399534373472}
  m_Material: {fileID: 0}
  m_IsTrigger: 0
  m_Enabled: 1
  serializedVersion: 3
  m_Convex: 0
  m_CookingOptions: 14
  m_Mesh: {fileID: 0}
